<?xml version="1.0" encoding="utf-8"?>
<!-- Generator: Adobe Illustrator 22.0.0, SVG Export Plug-In . SVG Version: 6.00 Build 0)  -->
<svg version="1.1" id="Layer_1" xmlns="http://www.w3.org/2000/svg" xmlns:xlink="http://www.w3.org/1999/xlink" x="0px" y="0px"
	 viewBox="0 0 24.8 24.6" style="enable-background:new 0 0 24.8 24.6;" xml:space="preserve">
<style type="text/css">
	.st0{fill:#7988A0;}
</style>
<path class="st0" d="M7,9.3C7.3,9,7.8,9,8.1,9.3l4.3,4.3l4.3-4.3C17,9,17.5,9,17.8,9.3c0.3,0.3,0.3,0.8,0,1.1L13,15.3
	c-0.3,0.3-0.8,0.3-1.1,0L7,10.5C6.6,10.1,6.6,9.6,7,9.3z"/>
</svg>
